Movie Metrics and Rotten Tomato Audience Scores
…
The messy results are typical of real world data. It is very noisy and very difficult to deduce visually what is happening here. Ill be looking into this relationship in more detail in the next section, as well need to verify whether or not this relationship is linear. Finally, lets consider the studio variable:

movie_data %>% select(studio) %>% group_by(studio) %>% summarise(n = n()) %>% mutate(proportion = n / sum(n)) %>% arrange(desc(proportion))

## # A tibble: 184 x 3
##                                      studio     n proportion
##                                      <fctr> <int>      <dbl>
##  1                       Paramount Pictures    37 0.06324786
##  2                    Warner Bros. Pictures    29 0.04957265
##  3         Sony Pictures Home Entertainment    26 0.04444444
##  4                       Universal Pictures    23 0.03931624
##  5                        Warner Home Video    19 0.03247863
##  6                         20th Century Fox    18 0.03076923
##  7                            Miramax Films    18 0.03076923
##  8                                      MGM    16 0.02735043
##  9 Twentieth Century Fox Home Entertainment    14 0.02393162
## 10                 MCA Universal Home Video    13 0.02222222
## # ... with 174 more rows
…
